Time Series Homework: Chapter 4 Lesson 1
…
NoteAnswer

data_ts <- tsibble(
  time = yearmonth(seq(as.Date("2020-01-01"), by = "month", length.out = 50)),
  gwn = gwn,
  index = time
)

decomp <- data_ts %>% 
  model(feasts::classical_decomposition(gwn, type = 'add')) %>% 
  components()

decomp

# A dable: 50 x 7 [1M]
# Key:     .model [1]
# :        gwn = trend + seasonal + random
   .model                      time     gwn  trend seasonal random season_adjust
   <chr>                      <mth>   <dbl>  <dbl>    <dbl>  <dbl>         <dbl>
 1 "feasts::classical_dec… 2020 Jan  1.94   NA      5.42e-4 NA            1.94  
 2 "feasts::classical_dec… 2020 Feb -0.799  NA     -5.77e-1 NA           -0.222 
 3 "feasts::classical_dec… 2020 Mar  0.514  NA     -1.08e+0 NA            1.60  
 4 "feasts::classical_dec… 2020 Apr  0.895  NA     -2.20e-1 NA            1.11  
 5 "feasts::classical_dec… 2020 May  0.572  NA      5.06e-1 NA            0.0653
 6 "feasts::classical_dec… 2020 Jun -0.150  NA     -1.34e+0 NA            1.19  
 7 "feasts::classical_dec… 2020 Jul  2.14    0.906  1.52e-1  1.08         1.99  
 8 "feasts::classical_dec… 2020 Aug -0.134   0.760  4.86e-1 -1.38        -0.620 
 9 "feasts::classical_dec… 2020 Sep  2.85    0.747  1.32e+0  0.791        1.54  
10 "feasts::classical_dec… 2020 Oct -0.0887  0.718 -1.07e+0  0.262        0.980 
# ℹ 40 more rows
…
